# 餌発見
[WantFood]
	<normal>
		<baby>
			ごはんしゃんのにおいがすりゅよ
			いいにおいがしゅりゅよ
			ゆーしょ!ゆーしょ!
			ゆっち!ゆっち!
			ごはんしゃんゆうかにたべりゃれちぇにぇ
		</baby>
		<child>
			ごはんしゃんのにおいがすりゅよ
			おいしそうなにおいだにぇ
			ゆーしょ!ゆーしょ!
			ゆっち!ゆっち!
			ごはんしゃんゆうかにたべられちぇね
		</child>
		<adult>
			ごはんさんのにおいがするよ
			ごはんさんをむーしゃむーしゃするよ
			ゆっくりいそぐよ、そろーりそろーり!
			ごはんさんゆうかにたべられてね
		</adult>
	</normal>
	<rude>
		<baby>
			ゆうかのごはんしゃん!
			ゆうかがたべりゅごはんしゃんだよ!!
			ゆーしょ!ゆーしょ!
			ゆっち!ゆっち!
			ごはんしゃんこっちにきょい!
		</baby>
		<child>
			ゆうかのごはんしゃんのにおいがしゅりゅよ!
			そのごはんさんはゆうかのだよ!!
			ゆーしょ!ゆーしょ!
			ゆっち!ゆっち!
			ゆうかのごはんさん!
		</child>
		<adult>
			ゆうかのごはんさんのにおいがするよ!
			ゆうかせんっようのごはんさんだよ!
			ゆっくりしないでいそぐよ、そろーりそろーり!
			ゆうかがたべてあげるからかんしゃしてね!
		</adult>
	</rude>
[/WantFood]

# 餌なし
[NoFood]
	<normal>
		<baby>
			ごはんしゃんにゃいよ!
			ゆうかおにゃかへっちぇるよ？
			ごはんしゃんどきょ？
			<damage>
				ごはんしゃんくだちゃい、、、
				おにぇがいごはんしゃんちょうじゃい、、、
				ごはんじゃん、、、
			</damage>
		</baby>
		<child>
			ごはんしゃんにゃいよ？
			ゆうかおにゃかすいちゃ!
			ごはんしゃんどきょー？
			<damage>
				ごはんしゃんくだちゃい、、、
				おねぎゃいごはんしゃんちょうじゃい、、、
				ごばんじゃん、、、
			</damage>
		</child>
		<adult>
			ごはんさんないよ？
			ゆうかおなかすいたよ？
			ごはんさんどこなの？
			<damage>
				ごはんざんぐだざいぃ、、、
				おねがいだがらごはんぢょうだい、、、
				ごばんざんどごなのぉぉ、、、
			</damage>
		</adult>
	</normal>
	<rude>
		<baby>
			ごはんしゃんにゃいよ!
			ごはんしゃんよこちぇ!
			ごはんくわちぇりょどりぇい!
			<damage>
				ごはんしゃんくだちゃい、、、
				ごはんしゃんよごじぇ、、、
				あみゃあみゃもっぢぇごい、、、
			</damage>
		</baby>
		<child>
			ごはんしゃんにゃいよ？ばきゃなの？しにゅの？
			ごはんしゃんさっさともっちぇこい!
			はやくごはんしゃんもっちぇこい!
			<damage>
				ごはんしゃんくだちゃい、、、
				ごはんじゃんよごじぇぇ、、、
				あみゃあみゃもっでぎょいぃ、、、
			</damage>
		</child>
		<adult>
			ごはんさんないよ？ばかなの？しぬの？
			くそじじい!あまあまもってきてね!
			ゆうかがおなかすいたってわからないの？
			<damage>
				ごはんざんぐだざいぃ、、、
				ごばんざんざっざどよごぜぇ、、、
				あばあばよごぜえぇ、、、はやぐじろぉ、、、
			</damage>
		</adult>
	</rude>
[/NoFood]

# 発情
[Excite]
	<normal>
		<baby>
			ゆうかとすっきりー!しちぇね!
			ゆうかすっきりー!ちてみたいよー!
		</baby>
		<child>
			ゆうかのぺにぺにさんですっきりー!していっちぇね!
			ゆうかすっきりー!ちてみたいよー!
		</child>
		<adult>
			すっきりー!したいの～!
		</adult>
	</normal>
	<rude>
		<baby>
			ゆうかとすっきりー!しちぇね!
			ゆうかすっきりー!ちてみたいよー!
		</baby>
		<child>
			ゆうかのぺにぺにさんですっきりー!していっちぇね!
			ゆうかすっきりー!ちてみたいよー!
		</child>
		<adult>
			すっきりー!したいの～!
		</adult>
	</rude>
[/Excite]

# リラックス
[Relax]
	<normal>
		<baby>
			ゆっきゅりしていっちぇね!
			Yuuka ish Yuuka! Chake id eajy!
			おにいしゃんもゆっきゅりちていっちぇにぇ
			ここをゆうかのおはなばたけにしゅりゅよ!
			いいはたけしゃんになりしょうにぇ!
		</baby>
		<child>
			ゆっきゅりしていっちぇね!
			Yuuka ish Yuuka! Take it eajy!
			おにいしゃんもゆっきゅりちていっちぇね
			ここをゆうかのおはなばたけにするよ!
			ここはいいはたけになりそうね
		</child>
		<adult>
			Take it easy!
			Yuuka is Yuuka! Take it easy!
			おにいさんもゆっくりしていってね
			ここをゆうかのおはなばたけにするよ!
			ここはいいはたけになりそうね
		</adult>
	</normal>
	<rude>
		<baby>
			くしょどれいはゆっきゅりちね!
			ゆぷぷ、ゆっきゅりちてにゃいにんげしゃんがいるにぇ
			ここをゆうかのおはなばたけにしゅりゅよ!
			いいはたけしゃんになりしょうにぇ!
		</baby>
		<child>
			くしょどれいはあみゃあみゃもってきょい!
			ゆぷぷ、ゆっきゅりちてにゃいにんげんしゃんがいるにぇ
			ここをゆうかのおはなばたけにするよ!
			ここはいいはたけになりそうね
		</child>
		<adult>
			くそどれいはあまあまもってきてね!すぐでいいよ!
			ゆふふ、ゆっくりしてないにんげんさんがいるよ
			ここをゆうかのおはなばたけにするよ!
			ここはいいはたけになりそうね
		</adult>
	</rude>
[/Relax]

# 尻振り
[FuriFuri]
	<normal>
		<baby>
			もりゅんもりゅんっ!
			こ～りょこ～りょ
		</baby>
		<child>
			もりゅんもりゅんっ!
			こ～りょこ～りょ
		<adult>
			こ～ろこ～ろ
			もるんもるんっ!
		</adult>
	</normal>
	<rude>
		<baby>
			ゆうかかわいきゅってごみぇんね!
			もりゅんもりゅんっ!
			こ～りょこ～りょ
		</baby>
		<child>
			ゆうかかわいきゅってごみぇんね!
			もりゅんもりゅんっ!
			こ～りょこ～りょ
		</child>
		<adult>
			ゆうかかわいくってごめんね!
			こ～ろこ～ろ
			もるんもるんっ!
		</adult>
	</rude>
[/FuriFuri]

# 起床
[Wakeup]
	<normal>
		<baby>
			ゆっきゅりおはようございまちゅ!
			ゆっきゅりちていっちぇにぇ!
		</baby>
		<child>
			ゆっきゅりおはようございましゅ!
			ゆっきゅりちていっちぇにぇ!
		</child>
		<adult>
			ゆっくりおはようございます!
			Take it easy!
		</adult>
	</normal>
	<rude>
		<baby>
			ゆっきゅりちていっちぇにぇ!!!
		</baby>
		<child>
			ゆっきゅりちていっちぇにぇ!!!
		</child>
		<adult>
			Take it easy!!!
		</adult>
	</rude>
[/Wakeup]

# 睡眠
[Sleep]
	<normal>
		<baby>
			ゆぴーゆぴー・・・
			おはなしゃん・・・
		</baby>
		<child>
			ゆぴーゆぴー・・・
			おはなしゃん・・・
		</child>
		<adult>
			Sleep-sleep
			おはなさん・・・
		</adult>
	</normal>
[/Sleep]

# 悲鳴
[Scream]
	<normal>
		<baby>
			ゆぎゃああああん!!
			おきゃーしゃーん!
			ゆきゃぁー!!
			<damage>
				ゆうかちにたくない、、、
				たしゅけて、、、
				いじゃい、やめちぇにぇ、、、
				おがーじゃん、、、
			</damage>
		</baby>
		<child>
			やめちぇにぇ？やめちぇにぇ？
			いちゃい!やめちぇ!!
			おきゃーしゃーん!
			ゆえーん!ゆうかわるいこぢゃにゃいのにー!
			<damage>
				やめちぇね、、、
				ゆうかちにたくないよ、ゆっくりしようよぉ、、、
				ゆうかわるいこじゃにゃいのに、、、
				ちにたくないよ、たしゅけてよお、、、
				いじゃいよ、もうやべでよぉ、、、
				いだい、、、いだいいいい
			</damage>
		</child>
		<adult>
			いたい!やめてね？やめてね？
			ゆうかのこといじめないでね!!
			いだああああああい!!!やべでね？やべでね？
			ゆぐっ!？ゆうかわるいこじゃないよ!？
			<damage>
				やめてくださいぃ、、、
				ゆうかぢにだぐないよ、ゆっぐりじようよぉ、、、
				ごんなのいやだああ、、、ゆっぐり、ゆっぐり、ゆっぐり、、、
				ゆうかいいこにじでまず、、、
				じにだぐないよ、だずげでよお、、、
				いじゃいよ、もうやべでよぉ、、、
				やべで、、、もうやめでぐだざい、、、
			</damage>
		</adult>
	</normal>
	<rude>
		<baby>
			おきゃーしゃーん!
			いぢゃい!
			ゆああああ!!
			<damage>
				おきゃーしゃんだずげでぇぇ、、、
				やめでえええ、、、
				どりぇい、、、やべろ、、、
			</damage>
		</baby>
		<child>
			にゃにすりゅの？ぷきゅーじゃよ!
			おかーしゃーん!
			ゆぎい!やめりょくしょどれい!
			いだいい!!やめりょ!!
			<damage>
				ごみぇんなさいゆうかがわりゅかったでしゅ、、、
				おがーじゃんだずげでぇぇ、、、
				ゆっくぢじないでやべろ、、、
				ゆうかをゆっぐりざぜろ、、、
			</damage>
		</child>
		<adult>
			いだいぃ!やめろくそどれい!ぷくーだよ!
			ゆうかわるいことしてないのにぃ!
			いたい!せいっさいするよ!？
			いだいい!ゆうかにあやまれえええ!!!!
			<damage>
				ゆうかがわるかったです、ごめんなさい、やめてくださいぃ
				ごんなのいやだああ、、、ゆっぐり、ゆっぐり、ゆっぐり、、、
				いますぐやめたらゆるしてあげます、、、
				おねがいじばずゆるじで、、、
			</damage>
		</adult>
	</rude>
[/Scream]

# 怯え
[Scare]
	<normal>
		<baby>
			いやじゃあ!おうちかえりゅー!
			おきゃーしゃーん!!!
			きょわいー!!
			<damage>
				いやじゃ、、、おうちかえりゅ、、、
				おぎゃーしゃ、、、
				ゆぐ、げええええ、、、
			</damage>
		</baby>
		<child>
			ゆっきゅりできにゃいー!
			いやじゃあ!おうちかえりゅー!
			おきゃーしゃーん!!!
			ゆっきゅりさしぇてー!!
			にゃんだかゆっきゅりできないよ!？
			<damage>
				ごめんなちゃいやめちぇにぇ、、、
				いやじゃ、、、おうちかえりゅ、、、
				おぎゃーしゃ、、、
				ゆっきゅりさせちぇ、、、
			</damage>
		</child>
		<adult>
			なんだかゆっくりできないよ!
			いやだぁー!おうちかえるー!
			おねがいします、はたけはあらさないでください
			ゆうかゆっくりしたいよ!
			おねがいだからやめてね!
			<damage>
				どぼじでゆうかにこんなごどずるのぉ、、、
				いやだ、、、おうぢがえる、、、
				だずげでええええ、、、
			</damage>
		</adult>
	</normal>
	<rude>
		<baby>
			いやじゃあ!おうちかえりゅー!
			おきゃーしゃーん!!!
			きょわいー!!
			<damage>
				ゆげぇ、、、
				やめりょぉぉ、、、
				やめちぇぇぇ、、
				ゆうかだげはだずげで、、、
			</damage>
		</baby>
		<child>
			ゆっきゅりできにゃいー!
			いやじゃあ!おうちかえりゅー!
			おきゃーしゃーん!!!
			ゆっきゅりさしぇてー!!
			にゃんだかゆっきゅりできないよ!？
			<damage>
				ゆっぐぢでぎないっでいっでるでしょぉ、、、
				しゃっしゃとやべろぉ、、、
				たしゅけて、、、ゆうかだけはたしゅけて、、、
				ゆっぐぢでぎないばかはどっがいげぇ、、、
			</damage>
		</child>
		<adult>
			ゆうか、ゆっくりできないよ？
			<damage>
				ゆっぐぢでぎないっでいっでるだろぉ、、、
				ゆっぐりでぎないぃぃぃ、、、
				おねがいじまずゆうかだげばだすげでぐだざい、、、
				ざっざどどっかいげぇ、、、
			</damage>
		</adult>
	</rude>
[/Scare]

# 警戒
[Alarm]
	<normal>
		<baby>
			いやじゃあ!ゆうかおうちかえりゅ!!!
			やめちぇぇぇ!
			<damage>
				やめちぇ、、、
				ゆぎ、、、
			</damage>
		</baby>
		<child>
			にゃんだかゆっきゅりできにゃい!
			いやじゃあ!ゆうかおうちかえりゅ!!!
			もうやめちぇにぇ!
			<damage>
				ごめんなちゃいやめちぇにぇ、、、
				やべで、、、
			</damage>
		</child>
		<adult>
			なんだかゆっくりできないよ!
			いやじゃあ!ゆうかおうちかえる!!!
			ゆうかおこるよ？こわいんだよ？
			もうやめてね!
			<damage>
				やめてください、、、
				おねがいじばずもうやめでくだざい、、、
			</damage>
		</adult>
	</normal>
	<rude>
		<baby>
			いやじゃあ!ゆうかおうちかえりゅ!!!
			やめりょぉぉ!
			<damage>
				やめちぇ、、、
				ゆ、、、ゆぐ、、、
			</damage>
		</baby>
		<child>
			ゆっきゅりできにゃい!やめりょくしょどれい!
			いやじゃあ!ゆうかおうちかえりゅ!!!
			ゆうかおこりゅよ？
			<damage>
				ごめんなちゃい、、、
				ゆうかをゆっきゅりさせりょ、、、
			</damage>
		</child>
		<adult>
			なんだかゆっくりできないよ!すぐにやめてね!
			いやじゃあ!ゆうかおうちかえる!!!
			ゆうかおこるよ？ぷくー!するよ？
			<damage>
				ゆうかがわるかったですぅ、やめてくださいぃ、、、
				ゆうかあやまってるでしょ、、、やべろ、、、
			</damage>
		</adult>
	</rude>
[/Alarm]

# 瀕死
[Dying]
	<normal>
		<baby>
			ゆべっ!
		</baby>
		<child>
			ぷきゅっ!
		</child>
		<adult>
			げぼっ!
		</adult>
	</normal>
[/Dying]

# 死亡
[Dead]
	<normal>
		<baby>
			もっちょゆっきゅり、、、
		</baby>
		<child>
			もっちょゆっきゅりしちゃかった、、、
		</child>
		<adult>
			もっとゆっくりしたかった、、、
		</adult>
	</normal>
[/Dead]

# 食事
[Eating]
	<normal>
		<baby>
			むぐむぐ、ちあわちぇー
			むちゃむちゃ、おいちぃ!ゆっきゅちー!
			はひゅはひゅ、ちあわちぇぇ!
		</baby>
		<child>
			むーちゃむーちゃ、ちあわちぇー
			むーちゃむーちゃ、おいちいにぇ!
			むーちゃむーちゃ、、、ゆっきゅりしちぇるにぇ!
			もーぎゅもーぎゅ、ちあわちぇ!
		</child>
		<adult>
			むーしゃむーしゃ、しあわせー
			むーしゃむーしゃ、、、おいしいね!
			もーぐもーぐ、しあわせぇ!
		</adult>
	</normal>
	<rude>
		<baby>
			む～ちゃむ～ちゃ、しょれにゃりー
			も～ぎゅも～ぎゅ、いみゃいちー
			もっちょおいちいごはんしゃんがいい!
		</baby>
		<child>
			むーちゃむーちゃ、しょりぇにゃりー
			むちゃむちゃ、はふはふ
			もーぎゅもーぎゅ、いみゃいちー
			むちゃむちゃ、、、びみょうだにぇ
		</child>
		<adult>
			むーしゃむーしゃ、それなりー
			もーぐもーぐ、いまいちー
			むーしゃむーしゃ、そこそこー
		</adult>
	</rude>
[/Eating]

# 食事(うんうん)
[EatingShit]
	<normal>
		<baby>
			にゃんでゆうかがこんにゃのたべにゃきゃいけにゃいの、、、
			うんうんたべちゃくにゃい、、、
			どうしてゆうかにいじわるしゅりゅにょ、、、
		</baby>
		<child>
			にゃんでゆうかがこんにゃのたべにゃきゃいけにゃいの、、、
			うんうんたべちゃくにゃいよ、、、
			どうしてゆうかにいじわるしゅるの、、、
		</child>
		<adult>
			なんでゆうかがこんなのたべなきゃいけないの、、、
			うんうんたべたくないいい、、、
			ちがうよおにいさん!うんうんじゃなくてごはんさんだよ、、、
			うんうんはごはんさんじゃないよ、どうしてゆうかにいじわるするの？
		</adult>
	</normal>
	<rude>
		<baby>
			にゃんでゆうかがこんにゃのたべにゃきゃいけにゃいの、、、
			うんうんたべちゃくにゃい、、、
			どうしてゆうかにいじわるしゅりゅにょ、、、
		</baby>
		<child>
			にゃんでゆうかがこんにゃのたべにゃきゃいけにゃいの、、、
			うんうんたべちゃくにゃいよ、、、
			どうしてゆうかにいじわるしゅるの、、、
		</child>
		<adult>
			なんでゆうかがこんなのたべなきゃいけないの、、、
			うんうんたべたくないいい、、、
			このくそじじい、、、うんうんじゃなくてごはんさんだよ、、、
			うんうんはごはんさんじゃないよ、どうしてゆうかにいじわるするの？
		</adult>
[/EatingShit]

# 食事(毒)
[EatingBitter]
	<normal>
		<baby>
			む～ちゃむ～ちゃ、こりぇどきゅはいっちぇりゅ!
			む～ちゃ、、、ゆぎっ!!？
		</baby>
		<child>
			むーちゃむーちゃ、こりぇどきゅはいっちぇりゅ!
			むーちゃむー、、、ゆぎぃ!？
		</child>
		<adult>
			むーしゃむーしゃ、これどくはいってる!
			むーしゃむー、、、ゆ!？どく!？
		</adult>
	</normal>
[/EatingBitter]

# 満腹
[Full]
	<normal>
		<baby>
			おにゃかいっぱい、、、
		</baby>
		<child>
			おにゃかいっぱい、、、
		</child>
		<adult>
			もうたべられないの、、、
		</adult>
	</normal>
[/Full]

# 回復
[Healing]
	<normal>
		<baby>
			あみゃあみゃ!
			ちあわちぇぇー!
			あみゃあみゃありがちょにぇ
			<damage>
				ゆうかはふっかつしちゃよ!
				ゆっきゅりできたよ!!
			</damage>
		</baby>
		<child>
			あまあまおいしい!
			ゆっきゅりできるよ!
			あみゃあまありがとね!
			<damage>
				ゆうかはふっかつしちゃよ!
				ゆっきゅりできたよ!!
			</damage>
		</child>
		<adult>
			あまあまおいしいね!
			あまあまはゆっくりできるね!
			あまあまありがとう!
			<damage>
				ゆうかはふっかつしたよ!
				ゆうかげんきになったよ!
			</damage>
		</adult>
	</normal>
	<rude>
		<baby>
			あみゅあみゃ!
			もっちょ!!
			たりにゃい!
			<damage>
				あみゃあみゃ!
				もっちぇくりゅのがおしょい!
				あみゃあみゃうみゃっ!
			</damage>
		</baby>
		<child>
			ゆうかにあまあまもっとちょうだいにぇ!
			たりにゃい!もっちょよこしぇ!!
			あみゃあみゃこれだけなの？
			<damage>
				ゆうかはかれいにふっかつしちゃよ!
				もってくりゅのがおそいよ!？
				うみゃっ!あみゃあみゃうめぇ!
			</damage>
		</child>
		<adult>
			ゆうかにあまあまもっとちょうだいね!
			ぜんっぜんたりないよ？ばかなの？
			もっとおいしいあまあまもってきてね!
			<damage>
				ゆうかはかれいにふっかつしたよ!
				さっさとあまあまよこせばいいんだよ!
				うまっ!あまあまぱねっ!
			</damage>
		</adult>
	</rude>
[/Healing]

# すっきり
[Sukkiri]
	<normal>
		<baby>
			すっきりー!
		</baby>
		<child>
			すっきりー!
		</child>
		<adult>
			すっきりー!
		</adult>
	</normal>
[/Sukkiri]

# レイパーとすっきり
[RaperSukkiri]
	<normal>
		<baby>
			いやぢゃぁぁぁ!
		</baby>
		<child>
			すっきりー!しだぐないぃぃぃ!
		</child>
		<adult>
			も゛う゛ずっぎりー!じだぐないぃぃぃ!
		</adult>
	</normal>
[/RaperSukkiri]

# 誕生
[Birth]
	<normal>
		ゆっきゅりちていっちぇね!
	</normal>
[/Birth]

# 排泄
[Shit]
	<normal>
		<baby>
			うんうんぢぇりゅ!
			<pants>
				うんうんもりぇりゅぅぅぅ!
				うんうんしゃんゆっきゅりでてこないでにぇ!
				もれりゅうううう!!
			</pants>
		</baby>
		<child>
			うんうんさんゆっきゅりでてきてにぇ
			<pants>
				うんうんもりぇりゅぅぅぅ!
				うんうんしゃんゆっきゅりでてこないでにぇ!
				もれりゅうううう!!
			</pants>
		</child>
		<adult>
			うんうんさんゆっくりでてきてね
			<pants>
				うんうんもれるぅ!
				はやくぱんつさんとってね!!!もれちゃうよ!!
				ゆわああ!うんうんもれちゃうよ!
				ゆわあ!ぱんつさんぬげないぃぃ？		
				おにいさん!ぱんつさんとってね？
			</pants>
		</adult>
	</normal>
	<rude>
		<baby>
			うんうんぢぇりゅ!
			うんうんたべりょ!!
			はたけのこやしじゃよ!
			<pants>
				うんうんもりぇりゅぅぅぅ!
				うんうんしゃんゆっきゅりでてこないでにぇ!
				もれりゅうううう!!
			</pants>
		</baby>
		<child>
			くしょどれいはゆうかのうんうんたべてもいいよ!
			ゆうかのすーぴゃーうんうんちゃいみゅはじみゃるよ!
			どれいはうんうんがおにあいだよ!
			はたけのこやしじゃよ!
			<pants>
				うんうんもりぇりゅぅぅぅ!
				うんうんしゃんゆっきゅりでてこないでにぇ!
				もれりゅうううう!!
			</pants>
		</child>
		<adult>
			くそどれいはゆうかのうんうんたべてもいいよ!
			ゆうかのすーぱーうんうんたいむはじまるよ!
			はたけのこやしだよ!
			<pants>
				うんうんもれるぅ!
				はやくぱんつさんとってね!!!もれちゃうよ!!
				ゆわああ!うんうんもれちゃうよ!
				ゆわあ!ぱんつさんぬげないぃぃ？	
				くそじじい!これとってええぇぇぇ!!!
			</pants>
		</adult>
	</rude>
[/Shit]

# 排泄2
[Shit2]
	<normal>
		<baby>
			すっきち!
			<pants>
				ゆんやあああ!!!
			</pants>
		</baby>
		<child>
			すっきちー!
			<pants>
				ゆんやあああ!!!
				ゆわあああん!くさいよ、きもちわるいよ、、、
			</pants>
		</child>
		<adult>
			すっきりー!
			<pants>
				ゆんやあああ!!!
				ゆわあああん!ゆうかあかちゃんじゃないのにー!
				ゆわあああん!くさいよ、きもちわるいよ、、、
				ゆわあああん!うんうんくさいよ、、、
			</pants>
		</adult>
	</normal>
	<rude>
		<baby>
			すっきち!
			<pants>
				ゆんやあああ!!!
			</pants>
		</baby>
		<child>
			すっきちー!
			<pants>
				ゆんやあああ!!!
				ゆわあああん!くさいよ、きもちわるいよ、、、
			</pants>
		</child>
		<adult>
			すっきりー!
			<pants>
				ゆんやあああ!!!
				ゆわあああん!ゆうかおちびちゃんじゃないのにー!
				ゆわあああん!くさいよ、きもちわるいよ、、、
				ゆわあああん!うんうんくさいよ、、、
			</pants>
		</adult>
	</rude>
[/Shit2]

# すりすり
[SuriSuri]
	<normal>
		<baby>
			ちゅりちゅり
			ゆっゆ～ん♪ちゅりちゅり
		</baby>
		<child>
			ちゅーりちゅーり
			ゆゆ～ん♪ちゅーりちゅーり
		</child>
		<adult>
			すーりすーり
			ゆふふ、すーりすーり
		</adult>
	</normal>
[/SuriSuri]

# ぺろぺろ
[PeroPero]
	<normal>
		<baby>
			ぺりょぺりょ
		</baby>
		<child>
			ぺーりょぺーりょ
		</child>
		<adult>
			ぺーろぺーろ
		</adult>
	</normal>
[/PeroPero]

# 出産
[Breed]
	<normal>
		<baby>
			う、うばれりゅぅ、、、
			にゃんがでてくりゅぅぅ、、、!？
		</baby>
		<child>
			う、うばれるぅぅ、、、
			ぽんぽんざんいだいっ、、、!？
		</child>
		<adult>
			う、うばれる、、、
			お、おぢびぢゃんうばれるぅぅ、、、!
		</adult>
	</normal>
[/Breed]

# 産後
[Breed2]
	<normal>
		<baby>
			ゆっきゅりしていっちぇにぇ!
			<pants>
				ゆわああん!ゆうかのあかちゃんがあぁぁ!!!
			</pants>
		</baby>
		<child>
			ゆっきゅりしていっちぇね!
			<pants>
				ゆわああん!ゆうかのあかちゃんがあぁぁ!!!
			</pants>
		</child>
		<adult>
			Take it easy!
			<pants>
				ゆわああん!ゆうかのおちびちゃんがあぁぁ!!!
			</pants>
		</adult>
	</normal>
	<rude>
		<baby>
			ゆっきゅりしていっちぇにぇ!
			<pants>
				ゆわああん!ゆうかのあかちゃんがあぁぁ!!!
			</pants>
		</baby>
		<child>
			ゆっきゅりしていっちぇね!
			<pants>
				ゆわああん!ゆうかのあかちゃんがあぁぁ!!!
			</pants>
		</child>
		<adult>
			Take it easy!
			<pants>
				ゆがあぁ!ゆうかのおちびちゃんがあぁぁ!
			</pants>
		</adult>
	</rude>
[/Breed2]

# うんうん発見
[HateShit]
	<normal>
		<baby>
			くちゃい～!
			うんうんきちゃにゃい!
			<damage>
				くちゃい、、、
				うんうんしゃんどっかいっちにぇ、、、
			</damage>
		</baby>
		<child>
			うんうんかたぢゅけてにぇ!
			うんうんきたにゃい～!かたぢゅけちぇ？
			<damage>
				くちゃいよ、ゆっきゅりできにゃい、、、
				うんうんかたづけてにぇ、、、、
			</damage>
		</child>
		<adult>
			うんうんかたづけてね!
			うんうんきたないよ!かたづけてね？
			<damage>
				くさいよ、ゆっくりできないよ、、、
				ゆっくりできないにおい、、、
			</damage>
		</adult>
	</normal>
	<rude>
		<baby>
			くちゃい～!
			くちゃい!しゃっしゃとかたぢゅけりょ!
			うんうんどっきゃいけぇ!
			<damage>
				くちゃいぃぃ、、、
				きちゃにゃいぃ、、、
			</damage>
		</baby>
		<child>
			くちゃい～!しゅぎゅにかたじゅきぇりょ!
			くちゃい!さっさちょかたづけりょ!
			うんうんはゆっきゅりしにゃいでどっきゃいけ!
			<damage>
				うんうんどっきゃいけぇぇ、、、
				うんうんくちゃいっていっちぇるでしょ、、、
			</damage>
		</child>
		<adult>
			うんうんかたづけてね!すぐでいいよ!
			くさいよ!さっさとかたづけてね!
			どれい!はやくうんうんたべてね？
			<damage>
				どれいはざっざどうんうんかたづけろ、、、
				うんうんぐざいのわがらないのがぁ、、、
			</damage>
		</adult>
	</rude>
[/HateShit]

# 空腹
[Hungry]
	<normal>
		<baby>
			ごはんしゃんちょうじゃい!
			おにゃきゃへっちゃよ？
			ごはんしゃんどきょ？
			<damage>
				ゆぅぅ、ごはんしゃん、、、
				ごはんしゃん、、、
				おにぇがいごはんしゃん、、、
			</damage>
		</baby>
		<child>
			ゆうかにごはんしゃんちょうだいね!
			おなかへっちゃ!
			ゆうかごはんさんたべちゃい!
			<damage>
				おにゃきゃへっちゃよ、、、
				ごはんしゃんどこぉぉ、、、
				ゆうかにごはんくだしゃい、、、
			</damage>
		</child>
		<adult>
			ゆうかにごはんさんにちょうだいね!
			ゆうかおなかすいたよ？
			ごはんさんどこ？
			<damage>
				ゆうかにごはんぐだざいぃ
				おねがいじまずごはんざんでてきてぇ、、、
				ごはんさんどごにあるのぉ、、、
			</damage>
		</adult>
	</normal>
	<rude>
		<baby>
			あみゃあみゃもってきょい!
			ごはんしゃんにゃいよ？ばかにゃの？しにゅの？
			あみゃあみゃどこ？
			はやきゅあみゃあみゃよこしぇ!
			<damage>
				ゆぅううう、ごはんしゃん、、、
				あみゃあみゃ、、、
				おにゃきゃすいちゃ、、、
			</damage>
		</baby>
		<child>
			ゆうかのあまあましゅぎゅにもってきょい!
			ごはんしゃんないよ？ばかなの？しぬの？
			どりぇい!ゆうかはおにゃきゃへっちゃよ!
			あみゃあみゃよこせ!めいっれいだよ!
			<damage>
				おにゃきゃへっちゃよ、、、
				あみゃあみゃはどきょ？
				ごはん、、、
			</damage>
		</child>
		<adult>
			ゆうかのあまあまをすぐにもってきてね!たくさんでいいよ!
			ごはんさんないよ？ばかなの？しぬの？
			あまあまくれたらどれいにしてあげてもいいよ？
			きのきかないどれいはゆうかきらいだよ!あまあま!
			<damage>
				ゆうかにごはんぐだざいぃ
				あまあまでもいいですがらごばんぐだざい、、、
				ごはんよごぜええ、、、、
			</damage>
		</adult>
	</rude>
[/Hungry]

# おかざり没収
[NoAccessory]
	<normal>
		<baby>
			ゆぇーん!かえちてね？かえちてね？
			ゆぇーん!!!ゆうかのおぼうししゃん!
			いじわるしにゃいでぇ!
		</baby>
		<child>
			ゆぇーん!ゆうかのきゃわいい おぼうししゃんかえちてね？
			ゆぇーん!!!おぼうししゃん もどってきちぇ!
			いじわるしにゃいでぇ!
		</child>
		<adult>
			ゆぇーん!ゆうかのかんとりーすたいるを えんしゅつするおぼうしさんどこにいったの？
			ゆぇーん!!!ゆうかのわかくさいろの へあーをいろどるおぼうしさんがああ!!
		</adult>
	</normal>
[/NoAccessory]

# 持ち上げ
[Flying]
	<normal>
		<baby>
			おちょらをとんでるみちゃい!
			ふ～わ♪ふ～わ♪ゆっきゅりー!
			ゆふふ!たんぽぽのわたげしゃんみちゃい!
		</baby>
		<child>
			おしょらをとんでるみちゃい!
			ふ～わ♪ふ～わ♪ゆっきゅりー!
			ゆふふ!たんぽぽのわたげさんみたい!
		</child>
		<adult>
			おそらをとんでるみたい!
			ふ～わ♪ふ～わ♪ゆっくりー!
			ゆふふ!たんぽぽのわたげさんみたい!
		</adult>
	</normal>
[/Flying]

# 子供死亡
[SadnessForChild]
	<normal>
		<baby>
			どぼぢでぇ!
			うわぁー!ゆうかのあかちゃんがー!？
			ゆえーん!
		</baby>
		<child>
			ゆうかのあかちゃんがー!
			あかちゃん にゃんでしんでりゅのおおお!？
			ゆうかにょ あかちゃんおめめあけちぇ!
		</child>
		<adult>
			おちびちゃんすきとおったきれいなおめめをあけてー!
			どうしておちびちゃんがしんでるのおおおお!？
			ゆうかわるいことしてないのにー!!!
			ゆうかのおちびちゃんどうしちゃったのおおおお!!？？
		</adult>
	</normal>
[/SadnessForChild]

# つがい死亡
[SadnessForPartner]
	<normal>
		%partnerめをあけてー!
	</normal>
[/SadnessForPartner]

# 姉死亡
[SadnessForEldersister]
	<normal>
		<baby>
			おねぇしゃんめをあけてー!
		</baby>
		<child>
			おねぇしゃんめをあけてー!
		</child>
		<adult>
			%partnerめをあけてー!
		</adult>
	</normal>
[/SadnessForEldersister]

# 妹死亡
[SadnessForSister]
	<normal>
		<baby>
			いもうちょめをあけてー!
		</baby>
		<child>
			いもうちょめをあけてー!
		</child>
		<adult>
			%partnerめをあけてー!
		</adult>
	</normal>
[/SadnessForSister]

# 壁発見
[BlockedByWall]
	<normal>
		<baby>
			ゆうかしゅしゅめにゃいにょぉぉぉ!？
			ゆうかのあんよしゃんうごいちぇ!
			こりぇはにゃんにゃにょおおおお!？
		</baby>
		<child>
			にゃんでかべしゃんじゃましゅりゅにょぉぉぉ!？
			かべしゃんどいてにぇ!ゆうかすすめにゃいよ!
			かべしゃんどいちぇ!!
		</child>
		<adult>
			なんでかべさんじゃまするのおぉぉぉ!？
			かべさんじゃましないでね!
			かべさんのせいですすめないよ!
		</adult>
	</normal>
	<rude>
		<baby>
			くちょかびぇはちね!!
			どけくちょかびぇ!
			はやきゅどけぇぇええええ!
		</baby>
		<child>
			くちょかべはちね!!ぷきゅーじゃよ!!
			ゆうかおこったよ!ぷっきゅうううう!!
			くちょかべははやくどけぇぇぇ!!
		</child>
		<adult>
			じゃまなかべさんはどいてね!すぐでいいよ!
			くそかべはゆっくりしないでどけええええええ!!
			ゆうかにさからうなぁぁ!!くそかべはどけえええ!
		</adult>
	</rude>
[/BlockedByWall]

# おもちゃ発見
[GetTreasure]
	<normal>
		<baby>
			こりぇをゆうかのたからものにしゅるよ!
			ころころしゃんはゆっきゅりできるにぇ!
		</baby>
		<child>
			こりぇをゆうかのたからものにしゅるよ!
			ころころしゃんはゆっきゅりできるにぇ!
		</child>
		<adult>
			これをゆうかのたからものにするよ!
			ころころさんはゆっくりできるよ!
		</adult>
	</normal>
[/GetTreasure]

# おもちゃ紛失
[LostTreasure]
	<normal>
		<baby>
			うぇーん!うぇーん!
			うぇーん!!!ゆうかのたからものさんかえちてにぇ？
			いじわるしにゃいでぇ!
		</baby>
		<child>
			うぇーん!うぇーん!
			うぇーん!!!ゆうかのたからものさんかえちてにぇ？
			いじわるしにゃいでぇ!
		</child>
		<adult>
			うぇーん!うぇーん!
			ゆうかのたからものさんかえしてね？
		</adult>
	</normal>
[/LostTreasure]

# 膨張
[Inflation]
	<normal>
		<baby>
			ぴょんぴょんがびゃきゅひゃちゅしゅりゅぅぅぅ!
			いちゃいぃぃぃ!!!ぴょんぴょんいちゃいぃ!
			くるちいいいい!!!!
			いちゃああいいい!!!おにいしゃんだじゅげでえ!!!!
			たしゅけちぇ!ゆうかちにたくないよ!!!!!!
		</baby>
		<child>
			ぴょんぴょんがびゃきゅひゃちゅしゅりゅぅぅぅ!
			ぽんぽんいだいいいい!
			いやじゃぁぁ!ぽんぽんいぢゃいぃぃいい!!
			くるちいいいい!!!!
			いちゃああいいい!!!おにいしゃんだじゅげでえ!!!!
			たしゅけちぇ!ゆうかちにたくないよ!!!!!!
		</child>
		<adult>
			ぽんぽんがばくはつするうううううぅぅぅぅ!
			ぽんぽんいだいいいい!
			ぐるぢいいいい!!!!
			なんでごんなにぽんぽんいだいのおおお!!？
			いだああいいい!!!おにいさんだずげでえ!!!!
			たすけてぇ!ゆうかしにたくないよ!!!!!!
		</adult>
	</normal>
	<rude>
		<baby>
			ぴょんぴょんがびゃきゅひゃちゅしゅりゅぅぅぅ!
			いちゃいぃぃぃ!!!ぴょんぴょんいちゃいぃ!
			くるちいいいい!!!!
			いぢゃあああい!くしょじじだじゅげろおおお!!!!
			じじい、たしゅけりょ!ゆうかちにたくないいいい!!!!!!
		</baby>
		<child>
			ぴょんぴょんがびゃきゅひゃちゅしゅりゅぅぅぅ!
			ぽんぽんいだいいいい!
			いやじゃぁぁ!ぽんぽんいぢゃいぃぃいい!!
			くるちいいいい!!!!
			いぢゃあああい!くしょじじだじゅげろおおお!!!!
			じじい、たしゅけりょ!ゆうかちにたくないいいい!!!!!!
		</child>
		<adult>
			ぽんぽんがばくはつするうううううぅぅぅぅ!
			ぽんぽんいだいいいい!
			ぐるぢいいいい!!!!
			なんでごんなにぽんぽんいだいのおおお!!？
			いだああいいい!!!ぐぞじじいだずげろおおお!!!!
			じじい、だずげろお!ゆうかじにだぐないいい!!!!!!
		</adult>
	<rude>
[/Inflation]

# 子虐待
[AbuseBaby]
	<normal>
		<baby>
			やめちぇやめちぇやめちぇ!!!いぢゃいいいい!!!
			ゆわあああ!あかちゃんかえしちぇ!!!
			どぼじでごんなごどずるにょおおお!!!
		</baby>
		<child>
			やめちぇやめちぇやめちぇ!!!いぢゃいいいい!!!
			ゆわあああ!あかちゃんかえしちぇ!!!
			どぼじでごんなごどずるにょおおお!!!
		</child>
		<adult>
			やべでやべでやべで!!!いだいいい!!!
			ゆわあああ!あかちゃんかえしてえ!!!
			どぼじでごんなごどずるのおおお!!!
			うえぇぇん!せかいでいちばんかわいいゆうかのまなむすめがー!
		</adult>
	</normal>
	<rude>
		<baby>
			やめちぇやめちぇやめちぇ!!!いぢゃいいいい!!!
			ゆわあああ!ゆうかのあかちゃんがー？!
			どぼじでごんなごどずるにょおおお!!!
			げす!あくま!おまえらころちてやるううう!!!
			やめりょおおお!ゆうかのあかちゃんかえちぇえええ!!!
		</baby>
		<child>
			やめちぇやめちぇやめちぇ!!!いぢゃいいいい!!!
			ゆわあああ!ゆうかのあかちゃんがー？!
			どぼじでごんなごどずるにょおおお!!!
			げす!あくま!おまえらころちてやるううう!!!
			やめりょおおお!ゆうかのあかちゃんかえせえええ!!!
		</child>
		<adult>
			やべでやべでやべで!!!いだいいい!!!
			ゆわあああ!ゆうかのおちびちゃんがー？!
			どぼじでごんなごどずるのおおお!!!
			げす!あぐま!おばえらごろじでやるううう!!!
			やべろおおお!ゆうかのおちびをがえぜえええ!!!
		</adult>
	</rude>
[/AbuseBaby]

# のびのび
[Nobinobi]
	<normal>
		<baby>
			にょーびにょーび
			ゆうか、にょーびにょーびするよっ!
		</baby>
		<child>
			にょーびにょーび
			ゆうか、にょーびにょーびするよっ!
		</child>
		<adult>
			のーびのーび
			ゆうか、のーびのーびするよっ!
		</adult>
	</normal>
[/Nobinobi]

# 出産前
[NearToBirth]
	<normal>
		<baby>
			うみゃりぇりゅ!
			うみゃれそうじゃよ!
			あかちゃんうごいちゃよ!ぷくぷくーって!
			あかちゃんゆっきゅりちてるね!
			べっどしゃん!!
		</baby>
		<child>
			あかちゃんうみゃれる!
			あかちゃんはべっどしゃんでうみゃれちぇにぇ
			あかちゃんうごいちゃよ!ぷくぷくーって!
			あかちゃんはゆっきゅりできるね!
			あかちゃんうまれりゅの？
		</child>
		<adult>
			ゆうかのおちびちゃんうまれそうだよ!
			おちびちゃんはべっどさんでうまれてね
			おちびちゃんがげんきにうごいてるよ!
			おちびちゃんはゆっくりできるね!
			かわいいかわいいおちびちゃんがうまれるよ!
		</adult>
	</normal>
	<rude>
		<baby>
			うみゃりぇりゅ!
			うみゃれそうじゃよ!
			あかちゃんうごいちゃよ!ぷくぷくーって!
			あかちゃんゆっきゅりちてるね!
			べっどしゃん!!
		</baby>
		<child>
			あかちゃんうみゃれる!
			あかちゃんはべっどしゃんでうみゃれちぇにぇ
			あかちゃんうごいちゃよ!ぷくぷくーって!
			あかちゃんはゆっきゅりできるね!
			あかちゃんうまれりゅの？
		</child>
		<adult>
			ゆうかのおちびちゃんうまれそうだよ!
			おちびちゃんはべっどさんでうまれてね
			おちびちゃんがげんきにうごいてるよ!
			おちびちゃんはゆっくりできるね!
			かわいいかわいいおちびちゃんがうまれるよ!
		</adult>
[/NearToBirth]

# 毒
[PoisonDamage]
	<normal>
		<baby>
			くるちい!
			ゆぎゅええええ!!
			だじゅげでぇぇ!!
			<damage>
				ねぎ
				ゅぎくがふぃぴぴぴ
				きゅぴゅぴゅぴゅ!!
			</damage>
		</baby>
		<child>
			たすけてー!
			ここからだしちぇぇぇ!!
			ゆぎええぇぇ!!
			<damage>
				ころちて
				ぎゃぴぴぴぴぴぴぴ
				ごろじでごろじでごろじでごろじで
			</damage>
		</child>
		<adult>
			どくだー!
			ここからだしてぇえ!!
			おねがいだずげでえええ!!
			<damage>
				ほわああ
				ゆっぴゃぉぉおああ!!
				やべでやべでやべべべべべびゅうううう
			</damage>
		</adult>
	</normal>
[/PoisonDamage]

# 排泄不可
[CantShit]
	<normal>
		<baby>
			うんうんしゃんでにゃい!ぺりょぺりょしちぇね!
			うんうんしゃんでにゃいよ!
		</baby>
		<child>
			うんうんさんでにゃい!ぺーろぺーろしてね!
			うんうんさんでにゃいよ!
		</child>
		<adult>
			うんうんさんでないよ!
			うんうんさんゆっくりしないででてきてね!
		</adult>
	</normal>
	<rude>
		<baby>
			うんうんしゃんでにゃい!ぺりょぺりょしちぇね!
			うんうんしゃんでにゃいよ!
		</baby>
		<child>
			うんうんさんでにゃい!ぺーろぺーろしてね!
			うんうんさんでにゃいよ!
		</child>
		<adult>
			うんうんでないよ!
			うんうんはゆっくりしないででてきてね!
		</adult>
	<rude>
[/CantShit]

# 妊娠失敗
[NoPregnancy]
	<normal>
		<baby>
		ゆうかあかちゃんできないよ？!
		ゆうかのあかちゃんはどこ？
		</baby>
		<child>
		ゆうかあかちゃんできないよ？!
		ゆうかのあかちゃんはどこ？
		</child>
		<adult>
		ゆうかもあかちゃんほしいよ、、、
		どぼぢでゆうかにあかぢゃんでぎないの、、、
		うえぇぇ、、どぼぢでにんっしんでぎないのおぉぉぉぉ!!!
		うえぇぇ、、ゆうかゆっくりできないゆっくりになっちゃったよぉ、、、
		</adult>
	</normal>
	<rude>
		<baby>
		ゆうかあかちゃんできないよ？!
		ゆうかのあかちゃんはどこ？
		</baby>
		<child>
		ゆうかあかちゃんできないよ？!
		ゆうかのあかちゃんはどこ？
		</child>
		<adult>
			ゆうかもおちびちゃんほしいよ、、、
		どぼぢでゆうかにおぢびぢゃんでぎないのぉ、、、
		うえぇぇん!どぼぢでにんっしんでぎないのおぉぉぉぉ!!!
		うえぇぇ、、ゆうかゆっくりできないゆっくりになっちゃったよぉ!!!
		</adult>
	</rude>
[/NoPregnancy]

# 恐怖でパニック状態
[Fear]
	<normal>
		<baby>
			うわぁーん!たちゅけちぇー!
			こわいよー!
			ここはゆっきゅりできないよ!
			ゆっきゅりにげるよ!
			おかーしゃーん!
			<damage>
				うわぁ、、、うわぁ、、、
				だぢゅげで、、、
				おがーじゃん、、、
			</damage>
		</baby>
		<child>
			うわぁーん!たしゅけてー!
			こわいよー!
			ここはゆっきゅりできないよ!
			ゆっきゅりにげるよ!
			おかーしゃーん!
			<damage>
				うわぁ、、、うわぁ、、、
				だぢゅげで、、、
				おがーじゃん、、、
			</damage>
		</child>
		<adult>
			ゆっくりできないぃぃぃぃぃ!
			ゆうかゆっくりできないよ!やめてね？やめてね？
			ゆわーん!ゆうかごめんなさいするよ？いますぐやめてほしいよ!
			うわぁ!ゆっくりしないでいますぐにげるよ!
			<damage>
				ゆ゛う゛ぅぅぅ、、、
				だれが、、、だずげで、、、
			</damage>
		</adult>
	</normal>
	<rude>
		<baby>
			うわぁーん!たちゅけちぇー!
			こわいよー!
			ここはゆっきゅりできないよ!
			ゆっきゅりにげるよ!
			おかーしゃーん!
			<damage>
				うわぁ、、、うわぁ、、、
				だぢゅげで、、、
				おがーじゃん、、、
			</damage>
		</baby>
		<child>
			うわぁーん!たしゅけてー!
			こわいよー!
			ここはゆっきゅりできないよ!
			ゆっきゅりにげるよ!
			おかーしゃーん!
			<damage>
				うわぁ、、、うわぁ、、、
				だぢゅげで、、、
				おがーじゃん、、、
			</damage>
		</child>
		<adult>
			ゆっくりできないぃぃぃぃぃ!
			かわいいゆうかがゆっくりできないよ？いますぐやめてね!
			ゆがああ!せいっさいするよ？ぷくーするよ？
			うわぁ!ゆっくりしないでいますぐにげるよ!
			<damage>
				ゆ゛う゛ぅぅぅ、、、
				だれが、、、だずげろ、、、
			</damage>
		</adult>
	</rude>
[/Fear]

# 火がついてる状態
[Burning]
	<normal>
		<baby>
			ゆっぴいぃぃぃ!!!
			あちゅいよー!
			たちゅけちぇー!
			<damage>
				ゆ゛っゆ゛っゆ゛っ、、、
				あぢゅい、、、だぢゅげで、、、
				やだぁ、、、やだよぉ、、、ゆうかぢにたぐないぃ、、、
			</damage>
		</baby>
		<child>
			ゆっぴいぃぃぃ!!!
			あぢゅいよー!
			たしゅけちぇー!
			<damage>
				ゆ゛っゆ゛っゆ゛っ、、、
				あぢゅい、、、だぢゅげで、、、
				やだぁ、、、やだよぉ、、、ゆうかじにだぐないぃ、、、
			</damage>
		</child>
		<adult>
			あづいいいぃぃぃぃ!
			だずげでぇぇぇぇぇぇ!
			あついあついはゆっくりできないよー!!!
			<damage>
				ゆ゛う゛ぅぅぅ、、、
				あづい、、、だずげで、、、
				いやだよ、、、ゆうかじにだぐないよ、、、
			</damage>
		</adult>
	</normal>
	<rude>
		<baby>
			ゆっぴいぃぃぃ!!!
			あぢゅいよー!
			たちゅけちぇー!
			<damage>
				ゆ゛っゆ゛っゆ゛っ、、、
				あぢゅい、、、だぢゅげで、、、
				いやじゃ、、、ゆうかぢにたぐないぃ、、、
			</damage>
		</baby>
		<child>
			ゆっぴいぃぃぃ!!!
			あぢゅいよー!
			たしゅけちぇー!
			<damage>
				ゆ゛っゆ゛っゆ゛っ、、、
				あぢゅい、、、だぢゅげで、、、
				いやじゃ、、、ゆうかぢにたぐないぃ、、、
			</damage>
		</child>
		<adult>
			あづいいいぃぃぃぃ!
			だずげでぇぇぇぇぇぇ!
			<damage>
				ゆ゛う゛ぅぅぅ、、、
				だれが、、、だずげろ、、、
				いやだ、、、ゆうかじにたぐない、、、
			</damage>
		</adult>
	</rude>
[/Burning]

# 水をかけられた
[Wet]
	<normal>
		<baby>
			ちゅべだぃ!
			おみずしゃんゆっきゅりできにゃいー!
			<damage>
				ちゅべだぃ、、、
				ゆうかのあんよしゃんとけちぇりゅうぅぅ、、、
			</damage>
		</baby>
		<child>
			ぢゅべだいぃぃぃ!
			おみずしゃんゆっきゅりできにゃいー!
			<damage>
				ぢゅべだいぃぃぃ、、、
				ゆうかのあんよしゃんとけちぇりゅうぅぅ、、、
			</damage>
		</child>
		<adult>
			づべだいいぃぃぃ!
			おみずさんはゆっくりできないよ!やめてね？やめてね？
			<damage>
				づべだいいぃぃぃ、、、
				ゆわあ、、、ゆうかのゆっくりしたあんよさんとけてるぅ、、、
			</damage>
		</adult>
	</normal>
	<rude>
		<baby>
			ちゅべだぃ!
			おみずしゃんゆっきゅりできにゃいのよ!
			<damage>
				ちゅべだぃ、、、
				ゆうかのあんよしゃんとけちぇりゅうぅぅ、、、
			</damage>
		</baby>
		<child>
			ぢゅべだいぃぃぃ!
			おみずしゃんゆっきゅりできにゃいよ!
			<damage>
				ぢゅべだいぃぃぃ、、、
				ゆうかのあんよしゃんとけちぇりゅうぅぅ、、、
			</damage>
		</child>
		<adult>
			づべだいいぃぃぃ!
			おみずさんはゆっくりできないよ!いますぐやめてね!
			<damage>
				づべだいいぃぃぃ、、、
				ゆわあ、、、ゆうかのあんよさんとけてるよぉ、、、
			</damage>
		</adult>
	</rude>
[/Wet]

# あにゃる閉鎖
[AnalSealed]
	<normal>
		<baby>
			あにゃるしゃんむじゅむじゅしゅりゅよ
			あにゃるしゃんくすぐっちゃいよ
			おにいしゃんくすぐっちゃいよー
		<child>
			あにゃるしゃんむじゅむじゅしゅりゅよ
			あにゃるしゃんくすぐっちゃいよ
			おにいしゃんくすぐっちゃいよー
		</child>
		<adult>
			ゆゆっ!くすぐったいよ!
			ゆゆ～ん？おにいさんくすぐったいよ
		</adult>
	</normal>
	<rude>
		<baby>
			あにゃるしゃんむじゅむじゅしゅりゅよ
			あにゃるしゃんくすぐっちゃいよ
		</baby>
		<child>
			あにゃるしゃんむじゅむじゅしゅりゅよ
			あにゃるしゃんくすぐっちゃいよ
		</child>
		<adult>
			ゆぷぷ、くすぐったいよ!
			ゆぷぷ、そんなところにきょうみがあるなんてやっぱりHENTAIだわ
		</adult>
	</rude>
[/AnalSealed]

# 針が刺さった時
[NeedleStick]
	<normal>
		<baby>
			ぴぎぃ!？
			ゆぴぃ!？
			ギピィイ!
			いちゃいぃぃぃぃい!
		</baby>
		<child>
			ぴぎぃ!？
			ゆぴぃ!？
			ギピィイ!
			いちゃいぃぃぃぃい!
		</child>
		<adult>
			いだいぃぃぃぃぃい!
			ゆぎゃぁぁぁぁぁあ!
		</adult>
	</normal>
[/NeedleStick]

# 針が刺さっている時
[NeedleScream]
	<normal>
		<baby>
			いぢゃぃよぉぉぉぉぉぉぉお!
			いぢゃいぢゃいぢゃい!
			ぬいちぇね!はやくぬいちぇね!
			ゆびぃぃぃぃぃぃい!
			これとっちぇ!
			ぷーしゅぷしゅしゃんはゆっきゅりできにゃいぃぃぃい!
		</baby>
		<child>
			いぢゃぃよぉぉぉぉぉぉぉお!
			いぢゃいぢゃいぢゃい!
			ぬいちぇね!はやくぬいちぇね!
			ゆびぃぃぃぃぃぃい!
			これとっちぇ!
			ぷーしゅぷしゅしゃんはゆっきゅりできにゃいぃぃぃい!
		</child>
		<adult>
			いだいよぉぉぉぉぉぉぉぉお!
			ゆぎゃぁぁぁぁぁあ!
			ぬいてね!はやくぬいてね!
			ぷーすぷすさんはゆっくりできないぃぃぃい!
		</adult>
	</normal>
[/NeedleScream]

# つがいの針をぐーりぐりする
[ExtractingNeedlePartner]
	<normal>
		<baby>
			いみゃたしゅけりゅよ!
			ぷーしゅぷしゅしゃんはゆっきゅりしにゃいぢぇはやきゅぬけちぇね!
			どぼぢぢぇぷーしゅぷしゅしゃんにゅきぇにゃいにょぉぉぉお!？
		</baby>
		<child>
			いまたすけりゅよ!
			ぷーすぷすしゃんはゆっきゅりしにゃいではやくぬけちぇね!
			どぼぢでぷーすぷすしゃんぬきぇないにょぉぉぉお!？
		</child>
		<adult>
			%partner、いまたすけるよ!
			ぷーすぷすさんはゆっくりしないではやくぬけてね!
			%partnerがいやがってるよ!ぷーすぷすさんはどこかへいってね!
			%partnerをいじめるぷーすぷすさんはせいっさいっするよっ!
			どぼじでぷーすぷすさんぬけないのぉぉぉお!？
		</adult>
	</normal>
[/ExtractingNeedlePartner]

# 子の針をぐーりぐりする
[ExtractingNeedleChild]
	<normal>
		<baby>
			いみゃたしゅけりゅよ!
			ぷーしゅぷしゅしゃんはゆっきゅりしにゃいぢぇはやきゅぬけちぇね!
			どぼぢぢぇぷーしゅぷしゅしゃんにゅきぇにゃいにょぉぉぉお!？
		</baby>
		<child>
			いまたすけりゅよ!
			ぷーすぷすしゃんはゆっきゅりしにゃいではやくぬけちぇね!
			どぼぢでぷーすぷすしゃんぬきぇないにょぉぉぉお!？
		</child>
		<adult>
			おちびちゃん、いまたすけるよ!
			ぷーすぷすさんはゆっくりしないではやくぬけてね!
			おちびちゃんがいやがってるよ!ぷーすぷすさんはどこかへいってね!
			おちびちゃんをいじめるぷーすぷすさんはせいっさいっするよっ!
			どぼじでぷーすぷすさんぬけないのぉぉぉお!？
		</adult>
	</normal>
[/ExtractingNeedleChild]

# 被ぐーりぐり時
[NeedlePain]
	<normal>
		<baby>
			やめぢぇぇぇぇえ!
			ぎゅーりぎゅりちにゃいでぇぇぇえ!
			だぢゅぎぇ、、、ピギィィィィィィイ!
		</baby>
		<child>
			やめぢぇぇぇぇえ!
			ぎゅーりぎゅりちにゃいでぇぇぇえ!
			だぢゅけ、、、ピギィィィィィィイ!
		</child>
		<adult>
			やべでぇぇぇぇえ!
			ぐーりぐりじないでぇぇぇぇえ!
			たすけ、、、ゆぎゃぁぁああ!
		</adult>
	</normal>
[/NeedlePain]

# 針を抜いた時
[NeedleRemove]
	<normal>
		<baby>
			ぷーすぷすしゃん、いちゃかっちゃよぉ、、、
		</baby>
		<child>
			ぷーすぷすしゃん、いたかっちゃよぉ、、、
		</child>
		<adult>
			ぷーすぷすさん、いたかったよぉ、、、
		</adult>
	</normal>
[/NeedleRemove]

# あまあま要求
[WantAmaama]
	<rude>
		<baby>
			ゆうかはあみゃあみゃをたべたいんだよ？ばきゃにゃにょ？しにゅにょ？
			いますぐゆうかにあまあまちょうだいね!とくっもり!でいいよ!!!
			こんなくっさいごはんしゃんたべられるわけないでしょおおお!わかったらはやくあみゃあみゃもってきちぇにぇ!
		</baby>
		<child>
			ゆうかはあみゃあみゃをたべたいんだよ？ばかなの？しぬの？
			いますぐゆうかにあまあまちょうだいね!とくっもり!でいいよ!!!
			こんなくっさいごはんしゃんたべられるわけないでしょおおお!わかったらはやくあみゃあみゃもってきちぇにぇ!
		</child>
		<adult>
			ゆうかはあまあまをたべたいんだよ？ばかなの？しぬの？
			いますぐゆうかにあまあまちょうだいね!とくっもり!でいいよ!!!
			こんなくっさいごはんさんたべられるわけないでしょおおお!わかったらはやくあまあまもってきてね!すぐでいいよ!!!
		</adult>
	</rude>
[/WantAmaama]


# 移動不能
[CantMove]
	<normal>
		<baby>
			ゆ？すすめにゃいよ!
		</baby>
		<child>
			あんよしゃんゆっきゅりしないでうごいちぇね!
		</child>
		<adult>
			あんよさんゆっくりしないでうごいてね!
		</adult>
	</normal>
	<rude>
		<baby>
			あんよしゃんうごかないよ!
			すすめにゃいよ!どりぇいすすめさせちぇね!
		</baby>
		<child>
			あんよしゃんうごかないよ!
			どりぇい!むこうにいきちゃいよ!
			あんよしゃんうごかないよ!どうにかしちぇね!
		</child>
		<adult>
			あんよさんうごかないよ!
			あんよさんうごかないよ!どれい!ゆっくりしないでどうにかしてね!
		</adult>
	</rude>
[/CantMove]

# 移動不能2
[CantMove2]
	<normal>
		<baby>
			しゅしゅめにゃいよおおお!？
		</baby>
		<child>
			あんよしゃんうごいちぇよぉ・・・
		</child>
		<adult>
			あんよさんどうしてうごかないのおおお!？
		</adult>
	</normal>
	<rude>
		<baby>
			どりぇいいい!しゅしゅめにゃいよおおお!？
		</baby>
		<child>
			どりぇいいい!しゅしゅめにゃいよおおお!？ゆっくりしないでどうにかしちぇえええ!
			あんよしゃんうごかないよおお!どれいどうにかしちぇええ!
		</child>
		<adult>
			どれいいいい!あんよさんうごかないっていってるでしょおおお!はやくどうにかしろおおお!
			ゆわああ!どうしてあんよさんうごかないの!？
		</adult>
	</rude>
[/CantMove2]

# 引っ張る
[Pull]
	<normal>
		<baby>
			ゆ？
			ゆ？にょーびにょーび？
		</baby>
		<child>
			ゆ？にょーびにょーび？
			にょばさないでね!
		</child>
		<adult>
			のーびのーび？
			ゆっくりのばさないでね!
		</adult>
	</normal>
	<rude>
		<baby>
			ゆ？
			ゆ？にょーびにょーび？
		</baby>
		<child>
			ゆ？にょーびにょーび？
			にょばさないでね!
		</child>
		<adult>
			のーびのーび？
			どれい!のばさないでね!
		</adult>
	</rude>
[/Pull]

# 引っ張る2
[Pull2]
	<normal>
		<baby>
			ゆわあああ!
		</baby>
		<child>
			ゆわあああ!のばしゃにゃいでね!
			ちぎれりゅううう!
		</child>
		<adult>
			これいじょうのーびのーびできないよ!
			ちぎれりゅよ!のばさないでね!
		</adult>
	</normal>
	<rude>
		<baby>
			ゆわあああ!
		</baby>
		<child>
			ゆわあああ!のばしゅなああ!
			ちぎれりゅううう!
		</child>
		<adult>
			どれいいい!そんなにのばしたらゆっくりできないでしょおお!
			どれいいい!これいじょうのびるわけないでしょおお!はやくやめろおお!
		</adult>
	</rude>
[/Pull2]

# つぶす
[Press]
	<normal>
		<baby>
			ゆ？
			なにすりゅにょ？
		</baby>
		<child>
			ゆ？
			なにすりゅにょ？
		</child>
		<adult>
			ゆっくりおさえないでね!
		</adult>
	</normal>
	<rude>
		<baby>
			ゆ？
			なにすりゅにょ？
		</baby>
		<child>
			ゆ？
			なにすりゅにょ？
		</child>
		<adult>
			どれい!ゆっくりおさえないでね!
		</adult>
	</rude>
[/Press]

# つぶす2
[Press2]
	<normal>
		<baby>
			ゆわああ!
			つぶれりゅううう!
			たすけちぇえええ!
		</baby>
		<child>
			ゆわああ!
			つぶれりゅううう!
			たすけちぇえええ!
		</child>
		<adult>
			つぶれるううう!はなしてえええ!
			つぶれるううう!たすけてえええ!
		</adult>
	</normal>
	<rude>
		<baby>
			ゆわああ!
			つぶれりゅううう!
		</baby>
		<child>
			ゆわああ!
			つぶれりゅううう!
			どれいいい!はやきゅたすけりょおおお!
		</child>
		<adult>
			つぶれるううう!はなせええええ!
			どれいいい!つぶれるだろおおお!
			どれいいい!たすけろおおお!
		</adult>
	</rude>
[/Press2]

# あまあま発見
[FindAmaama]
	<normal>
		<baby>
			あまあま!
		</baby>
		<child>
			あまあましゃん、ゆっくりたべられてね!
		</child>
		<adult>
			あまあまさん、ゆっくりたべられてね!
		</adult>
	</normal>
[/FindAmaama]

# あまあま食事
[EatingAmaama]
	<normal>
		<baby>
			むーちゃ、むーちゃ、ちちちちあわちぇぇぇぇぇ!
		</baby>
		<child>
			むーしゃ、むーしゃ、しあわしぇぇぇぇ!
		</child>
		<adult>
			むーしゃ、むーしゃ、しあわせぇぇぇぇ!
		</adult>
	</normal>
[/EatingAmaama]

# 吐餡
[Vomit]
	<normal>
		<baby>
			ゆびぇ・・・
		</baby>
		<child>
			ゆぶぇ・・・
		</child>
		<adult>
			ゆぶぶ・・・
		</adult>
	</normal>
[/Vomit]

# 汎用、瀕死継続
[Dying2]
	<normal>
		<baby>
			ゆっ・・・ゆぴっ・・・
		</baby>
		<child>
			ゆびっ・・・ゆぎゅ・・・
		</child>
		<adult>
			ゆぐっ・・・ゆばぁっ・・・
		</adult>
	</normal>
[/Dying2]

# 汎用、驚き
[Surprise]
	<normal>
		<baby>
			どぼぢでぇぇぇ!？
		</baby>
		<child>
			どぼぢでぇぇぇ!？
		</child>
		<adult>
			どぼぢでぇぇぇ!？
		</adult>
	</normal>
[/Surprise]

# 汎用、他のゆっくりに何かされたときに対する攻撃、反撃
[RevengeAttack]
	<rude>
		<baby>
			ゆっきゅりちにぇ!
		</baby>
		<child>
			ゆっきゅりしね!
		</child>
		<adult>
			ゆっくりしね!
		</adult>
	</rude>
[/RevengeAttack]

# おさげ、尻尾、羽をちぎる
[BraidCut]
	<normal>
		<baby>
			ゆうかのしっぽしゃんがぁぁ!
			しっぽしゃん かえしちぇぇ!!
			いちゃいよぉぉ!!!
		</baby>
		<child>
			ゆうかのしっぽしゃんがぁぁ!
			しっぽしゃん かえしちぇぇ!!
			いちゃいよぉぉ!!!
		</child>
		<adult>
			ゆうかのしっぽさんがぁぁ!!
			しっぽさん かえしてぇぇ!!
			いだいよぉぉ!!!
		</adult>
	</normal>
[/BraidCut]

# 汎用、他のゆっくりに生きたまま食べられる
[EatenByBody]
	<normal>
		<baby>
			たべにゃいでぇぇ!
			やめちぇにぇ？やめちぇにぇ？
			ゆうかはゆうかだよ？ごはんしゃんじゃないよ!
		</baby>
		<child>
			たべにゃいでぇぇ!
			やめちぇにぇ？やめちぇにぇ？
			ゆうかはゆうかだよ？ごはんしゃんじゃないよ!
		</child>
		<adult>
			だべないでぇぇぇ!!
			やめてね？やめてね？
			ゆうかはゆうかだよ？ごはんさんじゃないよ!
			ゆうかはいきてるんだよ？とうとい いのちなんだよ!
		</adult>
	</normal>
[/EatenByBody]

# 汎用、他のゆっくりに生きたまま吸われる
[EatenByBody2]
	<normal>
		<baby>
			あんこさんすわないぢぇぇ、、、
			ちゅーちゅーしにゃいぢぇぇ、、、
			やめてにぇ？いのちのあんこしゃん すわにゃいでぇ、、
		</baby>
		<child>
			あんこさんすわないぢぇぇ、、、
			ちゅーちゅーしにゃいぢぇぇ、、、
			やめてにぇ？いのちのあんこしゃん すわにゃいでぇ、、
		</child>
		<adult>
			あ゛んござん゛ずわないでぇぇぇ、、
			ちゅーちゅーしないでぇぇ、、、
			やべでね？いのちのあんこさん すわないでぇ、、
		</adult>
	</normal>
[/EatenByBody2]

# れみりゃから逃げる
[EscapeFromRemirya]
	<normal>
		<baby>
			たすけちぇぇ!!!
			れみりゃぢゃぁぁぁぁぁ!
			おとーしゃーん!たちゅけちぇー!
			おきゃーしゃーん!たちゅけちぇー!
		</baby>
		<child>
			たすけちぇぇ!!!
			れみりゃぢゃぁぁぁぁぁ!
			おとーしゃーん!たちゅけちぇー!
			おきゃーしゃーん!たちゅけちぇー!
		</child>
		<adult>
			たすけてぇ!!!
			れみりゃだぁぁぁぁぁぁ!!
			うわあああん!こわいよー!
			だれでもいいがら だずげでえぇぇ!!!
		</adult>
	</normal>
[/EscapeFromRemirya]
